#ROD_Channel ROC_Channel Straw# HW_addr Board GOL
0 0 34 1 1S 0
0 1 18 1 1S 0
0 2 16 1 1S 0
0 3 50 1 1S 0
0 4 1 1 1S 0
0 5 49 1 1S 0
0 6 48 1 1S 0
0 7 2 1 1S 0
0 8 32 1 1S 0
0 9 33 1 1S 0
0 10 17 1 1S 0
0 11 63 1 1S 0
0 12 0 1 1S 0
0 13 47 1 1S 0
0 14 15 1 1S 0
0 15 31 1 1S 0
2 0 6 2 1S 0
2 1 21 2 1S 0
2 2 -2 2 1S 0
2 3 37 2 1S 0
2 4 4 2 1S 0
2 5 52 2 1S 0
2 6 35 2 1S 0
2 7 5 2 1S 0
2 8 -2 2 1S 0
2 9 51 2 1S 0
2 10 20 2 1S 0
2 11 36 2 1S 0
2 12 19 2 1S 0
2 13 -2 2 1S 0
2 14 3 2 1S 0
2 15 -2 2 1S 0
4 0 25 3 1S 0
4 1 10 3 1S 0
4 2 23 3 1S 0
4 3 56 3 1S 0
4 4 8 3 1S 0
4 5 40 3 1S 0
4 6 54 3 1S 0
4 7 9 3 1S 0
4 8 -2 3 1S 0
4 9 39 3 1S 0
4 10 24 3 1S 0
4 11 55 3 1S 0
4 12 7 3 1S 0
4 13 38 3 1S 0
4 14 22 3 1S 0
4 15 53 3 1S 0
6 0 13 4 1S 0
6 1 12 4 1S 0
6 2 11 4 1S 0
6 3 44 4 1S 0
6 4 29 4 1S 0
6 5 30 4 1S 0
6 6 58 4 1S 0
6 7 28 4 1S 0
6 8 42 4 1S 0
6 9 43 4 1S 0
6 10 14 4 1S 0
6 11 59 4 1S 0
6 12 27 4 1S 0
6 13 57 4 1S 0
6 14 26 4 1S 0
6 15 41 4 1S 0
8 0 75 5 1S 0
8 1 74 5 1S 0
8 2 88 5 1S 0
8 3 106 5 1S 0
8 4 72 5 1S 0
8 5 122 5 1S 0
8 6 105 5 1S 0
8 7 89 5 1S 0
8 8 121 5 1S 0
8 9 138 5 1S 0
8 10 73 5 1S 0
8 11 90 5 1S 0
8 12 87 5 1S 0
8 13 120 5 1S 0
8 14 71 5 1S 0
8 15 104 5 1S 0
10 0 86 6 1S 0
10 1 70 6 1S 0
10 2 68 6 1S 0
10 3 103 6 1S 0
10 4 84 6 1S 0
10 5 102 6 1S 0
10 6 118 6 1S 0
10 7 85 6 1S 0
10 8 101 6 1S 0
10 9 -2 6 1S 0
10 10 69 6 1S 0
10 11 119 6 1S 0
10 12 -2 6 1S 0
10 13 117 6 1S 0
10 14 83 6 1S 0
10 15 100 6 1S 0
12 0 67 7 1S 0
12 1 82 7 1S 0
12 2 80 7 1S 0
12 3 116 7 1S 0
12 4 65 7 1S 0
12 5 99 7 1S 0
12 6 114 7 1S 0
12 7 66 7 1S 0
12 8 97 7 1S 0
12 9 98 7 1S 0
12 10 81 7 1S 0
12 11 115 7 1S 0
12 12 64 7 1S 0
12 13 113 7 1S 0
12 14 79 7 1S 0
12 15 96 7 1S 0
14 0 133 8 1S 0
14 1 149 8 1S 0
14 2 164 8 1S 0
14 3 202 8 1S 0
14 4 131 8 1S 0
14 5 184 8 1S 0
14 6 183 8 1S 0
14 7 132 8 1S 0
14 8 165 8 1S 0
14 9 166 8 1S 0
14 10 148 8 1S 0
14 11 201 8 1S 0
14 12 147 8 1S 0
14 13 200 8 1S 0
14 14 130 8 1S 0
14 15 182 8 1S 0
16 0 137 9 1S 0
16 1 188 9 1S 0
16 2 153 9 1S 0
16 3 170 9 1S 0
16 4 186 9 1S 0
16 5 134 9 1S 0
16 6 168 9 1S 0
16 7 135 9 1S 0
16 8 187 9 1S 0
16 9 136 9 1S 0
16 10 169 9 1S 0
16 11 152 9 1S 0
16 12 185 9 1S 0
16 13 151 9 1S 0
16 14 167 9 1S 0
16 15 150 9 1S 0
18 0 236 10 1S 0
18 1 218 10 1S 0
18 2 273 10 1S 0
18 3 219 10 1S 0
18 4 203 10 1S 0
18 5 292 10 1S 0
18 6 238 10 1S 0
18 7 274 10 1S 0
18 8 220 10 1S 0
18 9 254 10 1S 0
18 10 237 10 1S 0
18 11 255 10 1S 0
18 12 221 10 1S 0
18 13 311 10 1S 0
18 14 204 10 1S 0
18 15 256 10 1S 0
20 0 307 17 1L 0
20 1 326 17 1L 0
20 2 290 17 1L 0
20 3 251 17 1L 0
20 4 327 17 1L 0
20 5 270 17 1L 0
20 6 289 17 1L 0
20 7 308 17 1L 0
20 8 271 17 1L 0
20 9 253 17 1L 0
20 10 328 17 1L 0
20 11 252 17 1L 0
20 12 309 17 1L 0
20 13 272 17 1L 0
20 14 310 17 1L 0
20 15 291 17 1L 0
22 0 303 18 1L 0
22 1 322 18 1L 0
22 2 324 18 1L 0
22 3 266 18 1L 0
22 4 305 18 1L 0
22 5 285 18 1L 0
22 6 268 18 1L 0
22 7 304 18 1L 0
22 8 269 18 1L 0
22 9 286 18 1L 0
22 10 323 18 1L 0
22 11 267 18 1L 0
22 12 306 18 1L 0
22 13 287 18 1L 0
22 14 325 18 1L 0
22 15 288 18 1L 0
24 0 318 19 1L 0
24 1 300 19 1L 0
24 2 320 19 1L 0
24 3 263 19 1L 0
24 4 301 19 1L 0
24 5 245 19 1L 0
24 6 246 19 1L 0
24 7 282 19 1L 0
24 8 265 19 1L 0
24 9 283 19 1L 0
24 10 319 19 1L 0
24 11 264 19 1L 0
24 12 302 19 1L 0
24 13 247 19 1L 0
24 14 321 19 1L 0
24 15 284 19 1L 0
26 0 297 20 1L 0
26 1 278 20 1L 0
26 2 317 20 1L 0
26 3 259 20 1L 0
26 4 280 20 1L 0
26 5 260 20 1L 0
26 6 261 20 1L 0
26 7 316 20 1L 0
26 8 243 20 1L 0
26 9 223 20 1L 0
26 10 298 20 1L 0
26 11 279 20 1L 0
26 12 299 20 1L 0
26 13 262 20 1L 0
26 14 281 20 1L 0
26 15 244 20 1L 0
28 0 293 21 1L 0
28 1 313 21 1L 0
28 2 314 21 1L 0
28 3 275 21 1L 0
28 4 295 21 1L 0
28 5 257 21 1L 0
28 6 258 21 1L 0
28 7 294 21 1L 0
28 8 277 21 1L 0
28 9 239 21 1L 0
28 10 312 21 1L 0
28 11 276 21 1L 0
28 12 296 21 1L 0
28 13 240 21 1L 0
28 14 315 21 1L 0
28 15 222 21 1L 0
30 0 241 22 1L 0
30 1 224 22 1L 0
30 2 226 22 1L 0
30 3 205 22 1L 0
30 4 225 22 1L 0
30 5 206 22 1L 0
30 6 190 22 1L 0
30 7 242 22 1L 0
30 8 172 22 1L 0
30 9 171 22 1L 0
30 10 207 22 1L 0
30 11 189 22 1L 0
30 12 208 22 1L 0
30 13 191 22 1L 0
30 14 209 22 1L 0
30 15 174 22 1L 0
32 0 227 23 1L 0
32 1 210 23 1L 0
32 2 230 23 1L 0
32 3 192 23 1L 0
32 4 229 23 1L 0
32 5 175 23 1L 0
32 6 194 23 1L 0
32 7 211 23 1L 0
32 8 212 23 1L 0
32 9 176 23 1L 0
32 10 228 23 1L 0
32 11 193 23 1L 0
32 12 248 23 1L 0
32 13 195 23 1L 0
32 14 231 23 1L 0
32 15 213 23 1L 0
34 0 249 24 1L 0
34 1 214 24 1L 0
34 2 233 24 1L 0
34 3 196 24 1L 0
34 4 250 24 1L 0
34 5 180 24 1L 0
34 6 198 24 1L 0
34 7 232 24 1L 0
34 8 181 24 1L 0
34 9 215 24 1L 0
34 10 216 24 1L 0
34 11 197 24 1L 0
34 12 234 24 1L 0
34 13 199 24 1L 0
34 14 235 24 1L 0
34 15 217 24 1L 0
36 0 159 25 1L 0
36 1 177 25 1L 0
36 2 162 25 1L 0
36 3 143 25 1L 0
36 4 161 25 1L 0
36 5 127 25 1L 0
36 6 145 25 1L 0
36 7 160 25 1L 0
36 8 112 25 1L 0
36 9 128 25 1L 0
36 10 178 25 1L 0
36 11 144 25 1L 0
36 12 163 25 1L 0
36 13 129 25 1L 0
36 14 179 25 1L 0
36 15 146 25 1L 0
38 0 155 26 1L 0
38 1 139 26 1L 0
38 2 154 26 1L 0
38 3 123 26 1L 0
38 4 108 26 1L 0
38 5 157 26 1L 0
38 6 141 26 1L 0
38 7 140 26 1L 0
38 8 107 26 1L 0
38 9 173 26 1L 0
38 10 124 26 1L 0
38 11 156 26 1L 0
38 12 125 26 1L 0
38 13 158 26 1L 0
38 14 126 26 1L 0
38 15 142 26 1L 0
40 0 78 27 1L 0
40 1 95 27 1L 0
40 2 62 27 1L 0
40 3 111 27 1L 0
40 4 93 27 1L 0
40 5 76 27 1L 0
40 6 109 27 1L 0
40 7 61 27 1L 0
40 8 110 27 1L 0
40 9 77 27 1L 0
40 10 94 27 1L 0
40 11 46 27 1L 0
40 12 92 27 1L 0
40 13 45 27 1L 0
40 14 91 27 1L 0
40 15 60 27 1L 0
42 0 387 1 2S 1
42 1 367 1 2S 1
42 2 407 1 2S 1
42 3 366 1 2S 1
42 4 385 1 2S 1
42 5 345 1 2S 1
42 6 427 1 2S 1
42 7 406 1 2S 1
42 8 386 1 2S 1
42 9 405 1 2S 1
42 10 365 1 2S 1
42 11 384 1 2S 1
42 12 347 1 2S 1
42 13 346 1 2S 1
42 14 364 1 2S 1
42 15 344 1 2S 1
44 0 363 2 2S 1
44 1 403 2 2S 1
44 2 383 2 2S 1
44 3 362 2 2S 1
44 4 341 2 2S 1
44 5 402 2 2S 1
44 6 361 2 2S 1
44 7 343 2 2S 1
44 8 381 2 2S 1
44 9 382 2 2S 1
44 10 404 2 2S 1
44 11 342 2 2S 1
44 12 401 2 2S 1
44 13 400 2 2S 1
44 14 360 2 2S 1
44 15 380 2 2S 1
46 0 340 3 2S 1
46 1 379 3 2S 1
46 2 359 3 2S 1
46 3 399 3 2S 1
46 4 357 3 2S 1
46 5 377 3 2S 1
46 6 338 3 2S 1
46 7 416 3 2S 1
46 8 398 3 2S 1
46 9 339 3 2S 1
46 10 378 3 2S 1
46 11 358 3 2S 1
46 12 397 3 2S 1
46 13 337 3 2S 1
46 14 376 3 2S 1
46 15 356 3 2S 1
48 0 375 4 2S 1
48 1 336 4 2S 1
48 2 374 4 2S 1
48 3 355 4 2S 1
48 4 373 4 2S 1
48 5 352 4 2S 1
48 6 394 4 2S 1
48 7 334 4 2S 1
48 8 395 4 2S 1
48 9 335 4 2S 1
48 10 396 4 2S 1
48 11 354 4 2S 1
48 12 371 4 2S 1
48 13 353 4 2S 1
48 14 372 4 2S 1
48 15 333 4 2S 1
50 0 332 5 2S 1
50 1 350 5 2S 1
50 2 348 5 2S 1
50 3 432 5 2S 1
50 4 349 5 2S 1
50 5 431 5 2S 1
50 6 392 5 2S 1
50 7 391 5 2S 1
50 8 331 5 2S 1
50 9 412 5 2S 1
50 10 393 5 2S 1
50 11 351 5 2S 1
50 12 370 5 2S 1
50 13 329 5 2S 1
50 14 369 5 2S 1
50 15 330 5 2S 1
52 0 436 6 2S 1
52 1 413 6 2S 1
52 2 454 6 2S 1
52 3 519 6 2S 1
52 4 434 6 2S 1
52 5 477 6 2S 1
52 6 498 6 2S 1
52 7 475 6 2S 1
52 8 497 6 2S 1
52 9 455 6 2S 1
52 10 478 6 2S 1
52 11 435 6 2S 1
52 12 476 6 2S 1
52 13 453 6 2S 1
52 14 474 6 2S 1
52 15 433 6 2S 1
54 0 439 7 2S 1
54 1 460 7 2S 1
54 2 418 7 2S 1
54 3 481 7 2S 1
54 4 458 7 2S 1
54 5 414 7 2S 1
54 6 499 7 2S 1
54 7 437 7 2S 1
54 8 480 7 2S 1
54 9 438 7 2S 1
54 10 459 7 2S 1
54 11 417 7 2S 1
54 12 479 7 2S 1
54 13 415 7 2S 1
54 14 456 7 2S 1
54 15 457 7 2S 1
56 0 443 8 2S 1
56 1 485 8 2S 1
56 2 422 8 2S 1
56 3 464 8 2S 1
56 4 420 8 2S 1
56 5 462 8 2S 1
56 6 441 8 2S 1
56 7 483 8 2S 1
56 8 484 8 2S 1
56 9 442 8 2S 1
56 10 463 8 2S 1
56 11 421 8 2S 1
56 12 461 8 2S 1
56 13 440 8 2S 1
56 14 482 8 2S 1
56 15 419 8 2S 1
58 0 446 9 2S 1
58 1 489 9 2S 1
58 2 447 9 2S 1
58 3 468 9 2S 1
58 4 487 9 2S 1
58 5 424 9 2S 1
58 6 466 9 2S 1
58 7 445 9 2S 1
58 8 467 9 2S 1
58 9 426 9 2S 1
58 10 488 9 2S 1
58 11 425 9 2S 1
58 12 465 9 2S 1
58 13 444 9 2S 1
58 14 486 9 2S 1
58 15 423 9 2S 1
60 0 552 10 2S 1
60 1 510 10 2S 1
60 2 574 10 2S 1
60 3 531 10 2S 1
60 4 550 10 2S 1
60 5 529 10 2S 1
60 6 572 10 2S 1
60 7 508 10 2S 1
60 8 573 10 2S 1
60 9 509 10 2S 1
60 10 551 10 2S 1
60 11 549 10 2S 1
60 12 530 10 2S 1
60 13 507 10 2S 1
60 14 571 10 2S 1
60 15 528 10 2S 1
62 0 506 11 2S 1
62 1 548 11 2S 1
62 2 527 11 2S 1
62 3 570 11 2S 1
62 4 568 11 2S 1
62 5 503 11 2S 1
62 6 546 11 2S 1
62 7 504 11 2S 1
62 8 569 11 2S 1
62 9 505 11 2S 1
62 10 547 11 2S 1
62 11 526 11 2S 1
62 12 567 11 2S 1
62 13 525 11 2S 1
62 14 545 11 2S 1
62 15 524 11 2S 1
64 0 502 12 2S 1
64 1 523 12 2S 1
64 2 544 12 2S 1
64 3 564 12 2S 1
64 4 588 12 2S 1
64 5 541 12 2S 1
64 6 565 12 2S 1
64 7 521 12 2S 1
64 8 501 12 2S 1
64 9 587 12 2S 1
64 10 522 12 2S 1
64 11 566 12 2S 1
64 12 543 12 2S 1
64 13 520 12 2S 1
64 14 542 12 2S 1
64 15 500 12 2S 1
66 0 592 13 2S 1
66 1 636 13 2S 1
66 2 614 13 2S 1
66 3 658 13 2S 1
66 4 612 13 2S 1
66 5 657 13 2S 1
66 6 590 13 2S 1
66 7 680 13 2S 1
66 8 591 13 2S 1
66 9 681 13 2S 1
66 10 613 13 2S 1
66 11 635 13 2S 1
66 12 611 13 2S 1
66 13 634 13 2S 1
66 14 589 13 2S 1
66 15 656 13 2S 1
68 0 596 14 2S 1
68 1 640 14 2S 1
68 2 618 14 2S 1
68 3 662 14 2S 1
68 4 616 14 2S 1
68 5 638 14 2S 1
68 6 594 14 2S 1
68 7 660 14 2S 1
68 8 617 14 2S 1
68 9 661 14 2S 1
68 10 595 14 2S 1
68 11 639 14 2S 1
68 12 637 14 2S 1
68 13 593 14 2S 1
68 14 659 14 2S 1
68 15 615 14 2S 1
70 0 705 15 2S 1
70 1 776 15 2S 1
70 2 682 15 2S 1
70 3 752 15 2S 1
70 4 707 15 2S 1
70 5 777 15 2S 1
70 6 684 15 2S 1
70 7 730 15 2S 1
70 8 683 15 2S 1
70 9 729 15 2S 1
70 10 706 15 2S 1
70 11 753 15 2S 1
70 12 685 15 2S 1
70 13 754 15 2S 1
70 14 708 15 2S 1
70 15 731 15 2S 1
72 0 802 17 2L1 2
72 1 732 17 2L1 2
72 2 826 17 2L1 2
72 3 778 17 2L1 2
72 4 756 17 2L1 2
72 5 780 17 2L1 2
72 6 779 17 2L1 2
72 7 755 17 2L1 2
72 8 828 17 2L1 2
72 9 804 17 2L1 2
72 10 757 17 2L1 2
72 11 758 17 2L1 2
72 12 803 17 2L1 2
72 13 827 17 2L1 2
72 14 805 17 2L1 2
72 15 781 17 2L1 2
74 0 829 18 2L1 2
74 1 782 18 2L1 2
74 2 806 18 2L1 2
74 3 759 18 2L1 2
74 4 808 18 2L1 2
74 5 784 18 2L1 2
74 6 761 18 2L1 2
74 7 831 18 2L1 2
74 8 760 18 2L1 2
74 9 830 18 2L1 2
74 10 783 18 2L1 2
74 11 807 18 2L1 2
74 12 785 18 2L1 2
74 13 832 18 2L1 2
74 14 762 18 2L1 2
74 15 809 18 2L1 2
76 0 810 19 2L1 2
76 1 833 19 2L1 2
76 2 763 19 2L1 2
76 3 786 19 2L1 2
76 4 836 19 2L1 2
76 5 764 19 2L1 2
76 6 835 19 2L1 2
76 7 788 19 2L1 2
76 8 812 19 2L1 2
76 9 834 19 2L1 2
76 10 787 19 2L1 2
76 11 811 19 2L1 2
76 12 789 19 2L1 2
76 13 765 19 2L1 2
76 14 837 19 2L1 2
76 15 813 19 2L1 2
78 0 814 20 2L1 2
78 1 766 20 2L1 2
78 2 -2 20 2L1 2
78 3 790 20 2L1 2
78 4 816 20 2L1 2
78 5 791 20 2L1 2
78 6 839 20 2L1 2
78 7 768 20 2L1 2
78 8 767 20 2L1 2
78 9 838 20 2L1 2
78 10 -2 20 2L1 2
78 11 815 20 2L1 2
78 12 792 20 2L1 2
78 13 840 20 2L1 2
78 14 769 20 2L1 2
78 15 817 20 2L1 2
80 0 841 21 2L1 2
80 1 770 21 2L1 2
80 2 818 21 2L1 2
80 3 793 21 2L1 2
80 4 820 21 2L1 2
80 5 771 21 2L1 2
80 6 843 21 2L1 2
80 7 795 21 2L1 2
80 8 842 21 2L1 2
80 9 794 21 2L1 2
80 10 819 21 2L1 2
80 11 749 21 2L1 2
80 12 772 21 2L1 2
80 13 844 21 2L1 2
80 14 796 21 2L1 2
80 15 821 21 2L1 2
82 0 822 22 2L1 2
82 1 845 22 2L1 2
82 2 824 22 2L1 2
82 3 846 22 2L1 2
82 4 773 22 2L1 2
82 5 847 22 2L1 2
82 6 774 22 2L1 2
82 7 823 22 2L1 2
82 8 798 22 2L1 2
82 9 848 22 2L1 2
82 10 801 22 2L1 2
82 11 775 22 2L1 2
82 12 797 22 2L1 2
82 13 825 22 2L1 2
82 14 799 22 2L1 2
82 15 800 22 2L1 2
84 0 724 23 2L1 2
84 1 677 23 2L1 2
84 2 747 23 2L1 2
84 3 701 23 2L1 2
84 4 726 23 2L1 2
84 5 704 23 2L1 2
84 6 750 23 2L1 2
84 7 679 23 2L1 2
84 8 748 23 2L1 2
84 9 702 23 2L1 2
84 10 725 23 2L1 2
84 11 678 23 2L1 2
84 12 751 23 2L1 2
84 13 727 23 2L1 2
84 14 728 23 2L1 2
84 15 703 23 2L1 2
86 0 743 24 2L1 2
86 1 673 24 2L1 2
86 2 697 24 2L1 2
86 3 720 24 2L1 2
86 4 722 24 2L1 2
86 5 675 24 2L1 2
86 6 699 24 2L1 2
86 7 745 24 2L1 2
86 8 698 24 2L1 2
86 9 744 24 2L1 2
86 10 674 24 2L1 2
86 11 676 24 2L1 2
86 12 700 24 2L1 2
86 13 723 24 2L1 2
86 14 746 24 2L1 2
86 15 721 24 2L1 2
88 0 696 25 2L1 2
88 1 -2 25 2L1 2
88 2 672 25 2L1 2
88 3 719 25 2L1 2
88 4 718 25 2L1 2
88 5 694 25 2L1 2
88 6 741 25 2L1 2
88 7 671 25 2L1 2
88 8 -2 25 2L1 2
88 9 -2 25 2L1 2
88 10 742 25 2L1 2
88 11 695 25 2L1 2
88 12 -2 25 2L1 2
88 13 -2 25 2L1 2
88 14 -2 25 2L1 2
88 15 670 25 2L1 2
90 0 690 26 2L2 2
90 1 713 26 2L2 2
90 2 667 26 2L2 2
90 3 737 26 2L2 2
90 4 692 26 2L2 2
90 5 739 26 2L2 2
90 6 669 26 2L2 2
90 7 715 26 2L2 2
90 8 668 26 2L2 2
90 9 714 26 2L2 2
90 10 738 26 2L2 2
90 11 691 26 2L2 2
90 12 716 26 2L2 2
90 13 740 26 2L2 2
90 14 693 26 2L2 2
90 15 717 26 2L2 2
92 0 733 27 2L2 2
92 1 663 27 2L2 2
92 2 710 27 2L2 2
92 3 686 27 2L2 2
92 4 711 27 2L2 2
92 5 688 27 2L2 2
92 6 665 27 2L2 2
92 7 735 27 2L2 2
92 8 664 27 2L2 2
92 9 734 27 2L2 2
92 10 687 27 2L2 2
92 11 709 27 2L2 2
92 12 689 27 2L2 2
92 13 712 27 2L2 2
92 14 666 27 2L2 2
92 15 736 27 2L2 2
94 0 597 28 2L2 2
94 1 642 28 2L2 2
94 2 575 28 2L2 2
94 3 619 28 2L2 2
94 4 621 28 2L2 2
94 5 576 28 2L2 2
94 6 643 28 2L2 2
94 7 599 28 2L2 2
94 8 553 28 2L2 2
94 9 598 28 2L2 2
94 10 641 28 2L2 2
94 11 554 28 2L2 2
94 12 620 28 2L2 2
94 13 644 28 2L2 2
94 14 577 28 2L2 2
94 15 622 28 2L2 2
96 0 645 29 2L2 1
96 1 600 29 2L2 1
96 2 578 29 2L2 1
96 3 623 29 2L2 1
96 4 625 29 2L2 1
96 5 602 29 2L2 1
96 6 580 29 2L2 1
96 7 579 29 2L2 1
96 8 601 29 2L2 1
96 9 647 29 2L2 1
96 10 646 29 2L2 1
96 11 603 29 2L2 1
96 12 624 29 2L2 1
96 13 648 29 2L2 1
96 14 581 29 2L2 1
96 15 626 29 2L2 1
98 0 649 30 2L2 1
98 1 559 30 2L2 1
98 2 604 30 2L2 1
98 3 582 30 2L2 1
98 4 561 30 2L2 1
98 5 605 30 2L2 1
98 6 540 30 2L2 1
98 7 628 30 2L2 1
98 8 583 30 2L2 1
98 9 627 30 2L2 1
98 10 560 30 2L2 1
98 11 650 30 2L2 1
98 12 562 30 2L2 1
98 13 606 30 2L2 1
98 14 584 30 2L2 1
98 15 563 30 2L2 1
100 0 651 31 2L2 1
100 1 607 31 2L2 1
100 2 629 31 2L2 1
100 3 585 31 2L2 1
100 4 654 31 2L2 1
100 5 586 31 2L2 1
100 6 653 31 2L2 1
100 7 609 31 2L2 1
100 8 652 31 2L2 1
100 9 631 31 2L2 1
100 10 630 31 2L2 1
100 11 608 31 2L2 1
100 12 633 31 2L2 1
100 13 632 31 2L2 1
100 14 655 31 2L2 1
100 15 610 31 2L2 1
102 0 536 32 2L2 1
102 1 494 32 2L2 1
102 2 471 32 2L2 1
102 3 558 32 2L2 1
102 4 539 32 2L2 1
102 5 495 32 2L2 1
102 6 538 32 2L2 1
102 7 472 32 2L2 1
102 8 537 32 2L2 1
102 9 516 32 2L2 1
102 10 515 32 2L2 1
102 11 493 32 2L2 1
102 12 496 32 2L2 1
102 13 517 32 2L2 1
102 14 473 32 2L2 1
102 15 518 32 2L2 1
104 0 490 33 2L2 1
104 1 555 33 2L2 1
104 2 512 33 2L2 1
104 3 532 33 2L2 1
104 4 513 33 2L2 1
104 5 469 33 2L2 1
104 6 492 33 2L2 1
104 7 491 33 2L2 1
104 8 511 33 2L2 1
104 9 556 33 2L2 1
104 10 533 33 2L2 1
104 11 470 33 2L2 1
104 12 534 33 2L2 1
104 13 535 33 2L2 1
104 14 514 33 2L2 1
104 15 557 33 2L2 1
106 0 390 34 2L2 1
106 1 409 34 2L2 1
106 2 411 34 2L2 1
106 3 452 34 2L2 1
106 4 368 34 2L2 1
106 5 451 34 2L2 1
106 6 429 34 2L2 1
106 7 389 34 2L2 1
106 8 428 34 2L2 1
106 9 450 34 2L2 1
106 10 410 34 2L2 1
106 11 430 34 2L2 1
106 12 388 34 2L2 1
106 13 448 34 2L2 1
106 14 408 34 2L2 1
106 15 449 34 2L2 1
1 0 852 1 3S1 3
1 1 899 1 3S1 3
1 2 875 1 3S1 3
1 3 922 1 3S1 3
1 4 921 1 3S1 3
1 5 849 1 3S1 3
1 6 897 1 3S1 3
1 7 850 1 3S1 3
1 8 944 1 3S1 3
1 9 851 1 3S1 3
1 10 898 1 3S1 3
1 11 874 1 3S1 3
1 12 920 1 3S1 3
1 13 873 1 3S1 3
1 14 896 1 3S1 3
1 15 872 1 3S1 3
3 0 856 2 3S1 3
3 1 903 2 3S1 3
3 2 879 2 3S1 3
3 3 926 2 3S1 3
3 4 901 2 3S1 3
3 5 877 2 3S1 3
3 6 924 2 3S1 3
3 7 854 2 3S1 3
3 8 925 2 3S1 3
3 9 855 2 3S1 3
3 10 902 2 3S1 3
3 11 878 2 3S1 3
3 12 900 2 3S1 3
3 13 853 2 3S1 3
3 14 923 2 3S1 3
3 15 876 2 3S1 3
5 0 860 3 3S1 3
5 1 907 3 3S1 3
5 2 883 3 3S1 3
5 3 930 3 3S1 3
5 4 905 3 3S1 3
5 5 881 3 3S1 3
5 6 928 3 3S1 3
5 7 858 3 3S1 3
5 8 929 3 3S1 3
5 9 859 3 3S1 3
5 10 906 3 3S1 3
5 11 882 3 3S1 3
5 12 904 3 3S1 3
5 13 857 3 3S1 3
5 14 927 3 3S1 3
5 15 880 3 3S1 3
7 0 887 4 3S1 3
7 1 934 4 3S1 3
7 2 863 4 3S1 3
7 3 -2 4 3S1 3
7 4 909 4 3S1 3
7 5 885 4 3S1 3
7 6 932 4 3S1 3
7 7 862 4 3S1 3
7 8 933 4 3S1 3
7 9 886 4 3S1 3
7 10 910 4 3S1 3
7 11 -2 4 3S1 3
7 12 908 4 3S1 3
7 13 861 4 3S1 3
7 14 931 4 3S1 3
7 15 884 4 3S1 3
9 0 891 5 3S1 3
9 1 914 5 3S1 3
9 2 867 5 3S1 3
9 3 937 5 3S1 3
9 4 936 5 3S1 3
9 5 865 5 3S1 3
9 6 912 5 3S1 3
9 7 889 5 3S1 3
9 8 913 5 3S1 3
9 9 890 5 3S1 3
9 10 961 5 3S1 3
9 11 866 5 3S1 3
9 12 935 5 3S1 3
9 13 888 5 3S1 3
9 14 911 5 3S1 3
9 15 864 5 3S1 3
11 0 917 6 3S1 3
11 1 871 6 3S1 3
11 2 940 6 3S1 3
11 3 870 6 3S1 3
11 4 916 6 3S1 3
11 5 868 6 3S1 3
11 6 963 6 3S1 3
11 7 893 6 3S1 3
11 8 939 6 3S1 3
11 9 895 6 3S1 3
11 10 964 6 3S1 3
11 11 894 6 3S1 3
11 12 915 6 3S1 3
11 13 869 6 3S1 3
11 14 938 6 3S1 3
11 15 892 6 3S1 3
13 0 987 7 3S1 2
13 1 1036 7 3S1 2
13 2 986 7 3S1 2
13 3 1060 7 3S1 2
13 4 1033 7 3S1 2
13 5 984 7 3S1 2
13 6 1009 7 3S1 2
13 7 1010 7 3S1 2
13 8 1011 7 3S1 2
13 9 985 7 3S1 2
13 10 1012 7 3S1 2
13 11 962 7 3S1 2
13 12 1034 7 3S1 2
13 13 960 7 3S1 2
13 14 1035 7 3S1 2
13 15 959 7 3S1 2
15 0 983 8 3S1 2
15 1 1032 8 3S1 2
15 2 958 8 3S1 2
15 3 1059 8 3S1 2
15 4 1007 8 3S1 2
15 5 981 8 3S1 2
15 6 1006 8 3S1 2
15 7 957 8 3S1 2
15 8 1031 8 3S1 2
15 9 982 8 3S1 2
15 10 1008 8 3S1 2
15 11 -2 8 3S1 2
15 12 1030 8 3S1 2
15 13 956 8 3S1 2
15 14 1005 8 3S1 2
15 15 980 8 3S1 2
17 0 955 9 3S1 2
17 1 1029 9 3S1 2
17 2 979 9 3S1 2
17 3 1004 9 3S1 2
17 4 1027 9 3S1 2
17 5 977 9 3S1 2
17 6 1002 9 3S1 2
17 7 978 9 3S1 2
17 8 1003 9 3S1 2
17 9 -2 9 3S1 2
17 10 1028 9 3S1 2
17 11 954 9 3S1 2
17 12 1026 9 3S1 2
17 13 953 9 3S1 2
17 14 1001 9 3S1 2
17 15 952 9 3S1 2
19 0 976 10 3S1 2
19 1 1025 10 3S1 2
19 2 975 10 3S1 2
19 3 1000 10 3S1 2
19 4 1023 10 3S1 2
19 5 973 10 3S1 2
19 6 998 10 3S1 2
19 7 974 10 3S1 2
19 8 999 10 3S1 2
19 9 951 10 3S1 2
19 10 1024 10 3S1 2
19 11 950 10 3S1 2
19 12 1022 10 3S1 2
19 13 949 10 3S1 2
19 14 997 10 3S1 2
19 15 972 10 3S1 2
21 0 948 11 3S1 2
21 1 1021 11 3S1 2
21 2 971 11 3S1 2
21 3 996 11 3S1 2
21 4 1019 11 3S1 2
21 5 946 11 3S1 2
21 6 1018 11 3S1 2
21 7 945 11 3S1 2
21 8 995 11 3S1 2
21 9 947 11 3S1 2
21 10 1020 11 3S1 2
21 11 970 11 3S1 2
21 12 994 11 3S1 2
21 13 969 11 3S1 2
21 14 993 11 3S1 2
21 15 968 11 3S1 2
23 0 1071 12 3S2 2
23 1 1122 12 3S2 2
23 2 1046 12 3S2 2
23 3 1096 12 3S2 2
23 4 1120 12 3S2 2
23 5 1044 12 3S2 2
23 6 1094 12 3S2 2
23 7 1069 12 3S2 2
23 8 1095 12 3S2 2
23 9 1070 12 3S2 2
23 10 1121 12 3S2 2
23 11 1045 12 3S2 2
23 12 1119 12 3S2 2
23 13 1068 12 3S2 2
23 14 1093 12 3S2 2
23 15 1043 12 3S2 2
25 0 1075 13 3S2 2
25 1 1126 13 3S2 2
25 2 1050 13 3S2 2
25 3 1100 13 3S2 2
25 4 1124 13 3S2 2
25 5 1073 13 3S2 2
25 6 1098 13 3S2 2
25 7 1047 13 3S2 2
25 8 1099 13 3S2 2
25 9 1074 13 3S2 2
25 10 1125 13 3S2 2
25 11 1049 13 3S2 2
25 12 1123 13 3S2 2
25 13 1048 13 3S2 2
25 14 1097 13 3S2 2
25 15 1072 13 3S2 2
27 0 1054 14 3S2 2
27 1 1130 14 3S2 2
27 2 1079 14 3S2 2
27 3 1129 14 3S2 2
27 4 1102 14 3S2 2
27 5 1052 14 3S2 2
27 6 1127 14 3S2 2
27 7 1077 14 3S2 2
27 8 1128 14 3S2 2
27 9 1078 14 3S2 2
27 10 1103 14 3S2 2
27 11 1053 14 3S2 2
27 12 1101 14 3S2 2
27 13 1076 14 3S2 2
27 14 -2 14 3S2 2
27 15 1051 14 3S2 2
29 0 1057 15 3S2 2
29 1 1107 15 3S2 2
29 2 1083 15 3S2 2
29 3 1108 15 3S2 2
29 4 1109 15 3S2 2
29 5 1055 15 3S2 2
29 6 1105 15 3S2 2
29 7 1082 15 3S2 2
29 8 1106 15 3S2 2
29 9 1058 15 3S2 2
29 10 1084 15 3S2 2
29 11 1056 15 3S2 2
29 12 1104 15 3S2 2
29 13 1081 15 3S2 2
29 14 1131 15 3S2 2
29 15 1080 15 3S2 2
31 0 1158 16 3S2 2
31 1 1208 16 3S2 2
31 2 1157 16 3S2 2
31 3 1183 16 3S2 2
31 4 1207 16 3S2 2
31 5 1132 16 3S2 2
31 6 1181 16 3S2 2
31 7 1133 16 3S2 2
31 8 1182 16 3S2 2
31 9 1159 16 3S2 2
31 10 1234 16 3S2 2
31 11 1156 16 3S2 2
31 12 1206 16 3S2 2
31 13 1155 16 3S2 2
31 14 1180 16 3S2 2
31 15 1154 16 3S2 2
33 0 1179 17 3S2 2
33 1 1205 17 3S2 2
33 2 1153 17 3S2 2
33 3 1230 17 3S2 2
33 4 1203 17 3S2 2
33 5 1151 17 3S2 2
33 6 1228 17 3S2 2
33 7 1177 17 3S2 2
33 8 1229 17 3S2 2
33 9 1178 17 3S2 2
33 10 1204 17 3S2 2
33 11 1152 17 3S2 2
33 12 1202 17 3S2 2
33 13 1176 17 3S2 2
33 14 1201 17 3S2 2
33 15 1150 17 3S2 2
35 0 1149 18 3S2 2
35 1 1175 18 3S2 2
35 2 1148 18 3S2 2
35 3 1200 18 3S2 2
35 4 1224 18 3S2 2
35 5 1172 18 3S2 2
35 6 1198 18 3S2 2
35 7 1146 18 3S2 2
35 8 1199 18 3S2 2
35 9 1147 18 3S2 2
35 10 1174 18 3S2 2
35 11 1173 18 3S2 2
35 12 1223 18 3S2 2
35 13 1171 18 3S2 2
35 14 1197 18 3S2 2
35 15 1145 18 3S2 2
37 0 1255 19 3S2 2
37 1 1308 19 3S2 2
37 2 1254 19 3S2 2
37 3 1281 19 3S2 2
37 4 1279 19 3S2 2
37 5 1225 19 3S2 2
37 6 1252 19 3S2 2
37 7 1226 19 3S2 2
37 8 1227 19 3S2 2
37 9 1280 19 3S2 2
37 10 1253 19 3S2 2
37 11 1307 19 3S2 2
37 12 1278 19 3S2 2
37 13 1251 19 3S2 2
37 14 1277 19 3S2 2
37 15 1250 19 3S2 2
39 0 1259 20 3S2 2
39 1 1287 20 3S2 2
39 2 1233 20 3S2 2
39 3 1286 20 3S2 2
39 4 1311 20 3S2 2
39 5 1231 20 3S2 2
39 6 1284 20 3S2 2
39 7 1258 20 3S2 2
39 8 1285 20 3S2 2
39 9 1260 20 3S2 2
39 10 1312 20 3S2 2
39 11 1232 20 3S2 2
39 12 1283 20 3S2 2
39 13 1257 20 3S2 2
39 14 1282 20 3S2 2
39 15 1256 20 3S2 2
41 0 1392 21 3S2 2
41 1 1338 21 3S2 2
41 2 1419 21 3S2 2
41 3 1339 21 3S2 2
41 4 1364 21 3S2 2
41 5 1336 21 3S2 2
41 6 1418 21 3S2 2
41 7 1363 21 3S2 2
41 8 1391 21 3S2 2
41 9 1337 21 3S2 2
41 10 1365 21 3S2 2
41 11 1310 21 3S2 2
41 12 1390 21 3S2 2
41 13 1309 21 3S2 2
41 14 1362 21 3S2 2
41 15 1335 21 3S2 2
43 0 1389 22 3S2 2
43 1 1361 22 3S2 2
43 2 1388 22 3S2 2
43 3 1334 22 3S2 2
43 4 1414 22 3S2 2
43 5 1332 22 3S2 2
43 6 1359 22 3S2 2
43 7 1305 22 3S2 2
43 8 1387 22 3S2 2
43 9 1306 22 3S2 2
43 10 1360 22 3S2 2
43 11 1333 22 3S2 2
43 12 1358 22 3S2 2
43 13 1331 22 3S2 2
43 14 1386 22 3S2 2
43 15 1304 22 3S2 2
45 0 1446 23 3S2 2
45 1 1473 23 3S2 2
45 2 1445 23 3S2 2
45 3 1500 23 3S2 2
45 4 1471 23 3S2 2
45 5 1443 23 3S2 2
45 6 1527 23 3S2 2
45 7 1416 23 3S2 2
45 8 1499 23 3S2 2
45 9 1417 23 3S2 2
45 10 1472 23 3S2 2
45 11 1444 23 3S2 2
45 12 1498 23 3S2 2
45 13 1442 23 3S2 2
45 14 1470 23 3S2 2
45 15 1415 23 3S2 2
47 0 1638 33 3L1 3
47 1 1609 33 3L1 3
47 2 1581 33 3L1 3
47 3 1613 33 3L1 3
47 4 1611 33 3L1 3
47 5 1610 33 3L1 3
47 6 1583 33 3L1 3
47 7 1639 33 3L1 3
47 8 1640 33 3L1 3
47 9 1554 33 3L1 3
47 10 1612 33 3L1 3
47 11 1526 33 3L1 3
47 12 1582 33 3L1 3
47 13 1555 33 3L1 3
47 14 1641 33 3L1 3
47 15 1584 33 3L1 3
49 0 1605 34 3L1 3
49 1 1576 34 3L1 3
49 2 1634 34 3L1 3
49 3 1577 34 3L1 3
49 4 1550 34 3L1 3
49 5 1636 34 3L1 3
49 6 1579 34 3L1 3
49 7 1607 34 3L1 3
49 8 1578 34 3L1 3
49 9 1606 34 3L1 3
49 10 1549 34 3L1 3
49 11 1635 34 3L1 3
49 12 1551 34 3L1 3
49 13 1608 34 3L1 3
49 14 1580 34 3L1 3
49 15 1637 34 3L1 3
51 0 1601 35 3L1 3
51 1 1544 35 3L1 3
51 2 1630 35 3L1 3
51 3 1543 35 3L1 3
51 4 1545 35 3L1 3
51 5 1632 35 3L1 3
51 6 1574 35 3L1 3
51 7 1603 35 3L1 3
51 8 1573 35 3L1 3
51 9 1602 35 3L1 3
51 10 1572 35 3L1 3
51 11 1631 35 3L1 3
51 12 1546 35 3L1 3
51 13 1604 35 3L1 3
51 14 1575 35 3L1 3
51 15 1633 35 3L1 3
53 0 1597 36 3L1 3
53 1 1540 36 3L1 3
53 2 1626 36 3L1 3
53 3 1539 36 3L1 3
53 4 1541 36 3L1 3
53 5 1628 36 3L1 3
53 6 1570 36 3L1 3
53 7 1599 36 3L1 3
53 8 1569 36 3L1 3
53 9 1598 36 3L1 3
53 10 1568 36 3L1 3
53 11 1627 36 3L1 3
53 12 1542 36 3L1 3
53 13 1600 36 3L1 3
53 14 1571 36 3L1 3
53 15 1629 36 3L1 3
55 0 1593 37 3L1 3
55 1 1536 37 3L1 3
55 2 1622 37 3L1 3
55 3 1535 37 3L1 3
55 4 1537 37 3L1 3
55 5 1624 37 3L1 3
55 6 1566 37 3L1 3
55 7 1595 37 3L1 3
55 8 1565 37 3L1 3
55 9 1594 37 3L1 3
55 10 1564 37 3L1 3
55 11 1623 37 3L1 3
55 12 1538 37 3L1 3
55 13 1596 37 3L1 3
55 14 1567 37 3L1 3
55 15 1625 37 3L1 3
57 0 1589 38 3L1 3
57 1 1531 38 3L1 3
57 2 1590 38 3L1 3
57 3 1561 38 3L1 3
57 4 1533 38 3L1 3
57 5 1620 38 3L1 3
57 6 1534 38 3L1 3
57 7 1591 38 3L1 3
57 8 1532 38 3L1 3
57 9 1618 38 3L1 3
57 10 1562 38 3L1 3
57 11 1619 38 3L1 3
57 12 1563 38 3L1 3
57 13 1592 38 3L1 3
57 14 1504 38 3L1 3
57 15 1621 38 3L1 3
59 0 1587 39 3L1 3
59 1 1557 39 3L1 3
59 2 1528 39 3L1 3
59 3 1614 39 3L1 3
59 4 1530 39 3L1 3
59 5 1588 39 3L1 3
59 6 1559 39 3L1 3
59 7 1616 39 3L1 3
59 8 1558 39 3L1 3
59 9 1586 39 3L1 3
59 10 1556 39 3L1 3
59 11 1585 39 3L1 3
59 12 1560 39 3L1 3
59 13 1617 39 3L1 3
59 14 1529 39 3L1 3
59 15 1615 39 3L1 3
61 0 1501 40 3L1 3
61 1 1420 40 3L1 3
61 2 1474 40 3L1 3
61 3 1447 40 3L1 3
61 4 1421 40 3L1 3
61 5 1476 40 3L1 3
61 6 1449 40 3L1 3
61 7 1503 40 3L1 3
61 8 1448 40 3L1 3
61 9 1475 40 3L1 3
61 10 1393 40 3L1 3
61 11 1502 40 3L1 3
61 12 1422 40 3L1 3
61 13 1505 40 3L1 3
61 14 1450 40 3L1 3
61 15 1477 40 3L1 3
63 0 1478 41 3L1 3
63 1 1394 41 3L1 3
63 2 1506 41 3L1 3
63 3 1423 41 3L1 3
63 4 1424 41 3L1 3
63 5 1480 41 3L1 3
63 6 1452 41 3L1 3
63 7 1508 41 3L1 3
63 8 1395 41 3L1 3
63 9 1479 41 3L1 3
63 10 1451 41 3L1 3
63 11 1507 41 3L1 3
63 12 1425 41 3L1 3
63 13 1481 41 3L1 3
63 14 1453 41 3L1 3
63 15 1509 41 3L1 3
65 0 1482 42 3L1 3
65 1 1454 42 3L1 3
65 2 1510 42 3L1 3
65 3 1426 42 3L1 3
65 4 1428 42 3L1 3
65 5 1484 42 3L1 3
65 6 1456 42 3L1 3
65 7 1512 42 3L1 3
65 8 1455 42 3L1 3
65 9 1483 42 3L1 3
65 10 1427 42 3L1 3
65 11 1511 42 3L1 3
65 12 1429 42 3L1 3
65 13 1485 42 3L1 3
65 14 1457 42 3L1 3
65 15 1513 42 3L1 3
67 0 1486 43 3L1 3
67 1 1458 43 3L1 3
67 2 1514 43 3L1 3
67 3 1431 43 3L1 3
67 4 1432 43 3L1 3
67 5 1488 43 3L1 3
67 6 1460 43 3L1 3
67 7 1516 43 3L1 3
67 8 1459 43 3L1 3
67 9 1515 43 3L1 3
67 10 1430 43 3L1 3
67 11 1487 43 3L1 3
67 12 1433 43 3L1 3
67 13 1517 43 3L1 3
67 14 1461 43 3L1 3
67 15 1489 43 3L1 3
69 0 1518 44 3L1 3
69 1 1462 44 3L1 3
69 2 1490 44 3L1 3
69 3 1435 44 3L1 3
69 4 1409 44 3L1 3
69 5 1548 44 3L1 3
69 6 1464 44 3L1 3
69 7 1491 44 3L1 3
69 8 1436 44 3L1 3
69 9 1547 44 3L1 3
69 10 1463 44 3L1 3
69 11 1519 44 3L1 3
69 12 1437 44 3L1 3
69 13 1492 44 3L1 3
69 14 1465 44 3L1 3
69 15 1520 44 3L1 3
71 0 1522 45 3L1 3
71 1 1467 45 3L1 3
71 2 1523 45 3L1 3
71 3 1466 45 3L1 3
71 4 1524 45 3L1 3
71 5 1468 45 3L1 3
71 6 1552 45 3L1 3
71 7 1496 45 3L1 3
71 8 1521 45 3L1 3
71 9 1495 45 3L1 3
71 10 1493 45 3L1 3
71 11 1494 45 3L1 3
71 12 1553 45 3L1 3
71 13 1469 45 3L1 3
71 14 1525 45 3L1 3
71 15 1497 45 3L1 3
73 0 1438 46 3L2 3
73 1 1328 46 3L2 3
73 2 1410 46 3L2 3
73 3 1383 46 3L2 3
73 4 1441 46 3L2 3
73 5 1384 46 3L2 3
73 6 1440 46 3L2 3
73 7 1385 46 3L2 3
73 8 1439 46 3L2 3
73 9 1356 46 3L2 3
73 10 1411 46 3L2 3
73 11 1329 46 3L2 3
73 12 1412 46 3L2 3
73 13 1330 46 3L2 3
73 14 1413 46 3L2 3
73 15 1357 46 3L2 3
75 0 1378 47 3L2 3
75 1 1325 47 3L2 3
75 2 1406 47 3L2 3
75 3 1352 47 3L2 3
75 4 1382 47 3L2 3
75 5 1380 47 3L2 3
75 6 1354 47 3L2 3
75 7 1407 47 3L2 3
75 8 1326 47 3L2 3
75 9 1434 47 3L2 3
75 10 1327 47 3L2 3
75 11 1379 47 3L2 3
75 12 1353 47 3L2 3
75 13 1381 47 3L2 3
75 14 1355 47 3L2 3
75 15 1408 47 3L2 3
77 0 1402 48 3L2 3
77 1 1321 48 3L2 3
77 2 1375 48 3L2 3
77 3 1347 48 3L2 3
77 4 1351 48 3L2 3
77 5 1404 48 3L2 3
77 6 1323 48 3L2 3
77 7 1376 48 3L2 3
77 8 1349 48 3L2 3
77 9 1348 48 3L2 3
77 10 1322 48 3L2 3
77 11 1403 48 3L2 3
77 12 1350 48 3L2 3
77 13 1377 48 3L2 3
77 14 1324 48 3L2 3
77 15 1405 48 3L2 3
79 0 1371 49 3L2 3
79 1 1317 49 3L2 3
79 2 1399 49 3L2 3
79 3 1344 49 3L2 3
79 4 1319 49 3L2 3
79 5 1373 49 3L2 3
79 6 -2 49 3L2 3
79 7 1400 49 3L2 3
79 8 1345 49 3L2 3
79 9 1372 49 3L2 3
79 10 1318 49 3L2 3
79 11 -2 49 3L2 3
79 12 1346 49 3L2 3
79 13 1401 49 3L2 3
79 14 1320 49 3L2 3
79 15 1374 49 3L2 3
81 0 1366 50 3L2 3
81 1 1313 50 3L2 3
81 2 1367 50 3L2 3
81 3 1340 50 3L2 3
81 4 1315 50 3L2 3
81 5 1397 50 3L2 3
81 6 1342 50 3L2 3
81 7 1369 50 3L2 3
81 8 1341 50 3L2 3
81 9 1368 50 3L2 3
81 10 1314 50 3L2 3
81 11 1396 50 3L2 3
81 12 1316 50 3L2 3
81 13 1370 50 3L2 3
81 14 1343 50 3L2 3
81 15 1398 50 3L2 3
83 0 1261 51 3L2 3
83 1 1209 51 3L2 3
83 2 1288 51 3L2 3
83 3 1235 51 3L2 3
83 4 1210 51 3L2 3
83 5 1290 51 3L2 3
83 6 1237 51 3L2 3
83 7 1263 51 3L2 3
83 8 1236 51 3L2 3
83 9 1262 51 3L2 3
83 10 1184 51 3L2 3
83 11 1289 51 3L2 3
83 12 1211 51 3L2 3
83 13 1264 51 3L2 3
83 14 1238 51 3L2 3
83 15 1291 51 3L2 3
85 0 1292 52 3L2 3
85 1 1265 52 3L2 3
85 2 1212 52 3L2 3
85 3 1213 52 3L2 3
85 4 1241 52 3L2 3
85 5 1267 52 3L2 3
85 6 1242 52 3L2 3
85 7 1293 52 3L2 3
85 8 1214 52 3L2 3
85 9 1239 52 3L2 3
85 10 1240 52 3L2 3
85 11 1266 52 3L2 3
85 12 1215 52 3L2 3
85 13 1294 52 3L2 3
85 14 1216 52 3L2 3
85 15 1268 52 3L2 3
87 0 1295 53 3L2 3
87 1 1191 53 3L2 3
87 2 1269 53 3L2 3
87 3 1243 53 3L2 3
87 4 1244 53 3L2 3
87 5 1272 53 3L2 3
87 6 1218 53 3L2 3
87 7 1271 53 3L2 3
87 8 1270 53 3L2 3
87 9 1296 53 3L2 3
87 10 1217 53 3L2 3
87 11 1297 53 3L2 3
87 12 1245 53 3L2 3
87 13 1298 53 3L2 3
87 14 1219 53 3L2 3
87 15 1299 53 3L2 3
89 0 1220 54 3L2 3
89 1 1273 54 3L2 3
89 2 1246 54 3L2 3
89 3 1303 54 3L2 3
89 4 1275 54 3L2 3
89 5 1221 54 3L2 3
89 6 1301 54 3L2 3
89 7 1248 54 3L2 3
89 8 1300 54 3L2 3
89 9 1247 54 3L2 3
89 10 1274 54 3L2 3
89 11 1195 54 3L2 3
89 12 1302 54 3L2 3
89 13 1222 54 3L2 3
89 14 1276 54 3L2 3
89 15 1249 54 3L2 3
91 0 1167 55 3L2 3
91 1 1192 55 3L2 3
91 2 1169 55 3L2 3
91 3 1116 55 3L2 3
91 4 1141 55 3L2 3
91 5 1194 55 3L2 3
91 6 1143 55 3L2 3
91 7 1092 55 3L2 3
91 8 1193 55 3L2 3
91 9 1117 55 3L2 3
91 10 1168 55 3L2 3
91 11 1142 55 3L2 3
91 12 1118 55 3L2 3
91 13 1170 55 3L2 3
91 14 1144 55 3L2 3
91 15 1196 55 3L2 3
93 0 1115 56 3L2 3
93 1 1166 56 3L2 3
93 2 1140 56 3L2 3
93 3 1165 56 3L2 3
93 4 1087 56 3L2 3
93 5 1164 56 3L2 3
93 6 1113 56 3L2 3
93 7 1138 56 3L2 3
93 8 1190 56 3L2 3
93 9 1114 56 3L2 3
93 10 1139 56 3L2 3
93 11 1088 56 3L2 3
93 12 1189 56 3L2 3
93 13 1062 56 3L2 3
93 14 1163 56 3L2 3
93 15 1112 56 3L2 3
95 0 1134 57 3L2 3
95 1 1061 57 3L2 3
95 2 1185 57 3L2 3
95 3 1135 57 3L2 3
95 4 1085 57 3L2 3
95 5 1187 57 3L2 3
95 6 1111 57 3L2 3
95 7 1161 57 3L2 3
95 8 1136 57 3L2 3
95 9 1160 57 3L2 3
95 10 1110 57 3L2 3
95 11 1186 57 3L2 3
95 12 1137 57 3L2 3
95 13 1162 57 3L2 3
95 14 1086 57 3L2 3
95 15 1188 57 3L2 3
97 0 1091 58 3L2 2
97 1 1042 58 3L2 2
97 2 1067 58 3L2 2
97 3 1017 58 3L2 2
97 4 1065 58 3L2 2
97 5 1015 58 3L2 2
97 6 1089 58 3L2 2
97 7 1040 58 3L2 2
97 8 1090 58 3L2 2
97 9 1041 58 3L2 2
97 10 1066 58 3L2 2
97 11 1016 58 3L2 2
97 12 1064 58 3L2 2
97 13 1039 58 3L2 2
97 14 1063 58 3L2 2
97 15 1038 58 3L2 2
99 0 967 59 3L2 1
99 1 992 59 3L2 1
99 2 943 59 3L2 1
99 3 991 59 3L2 1
99 4 919 59 3L2 1
99 5 1037 59 3L2 1
99 6 942 59 3L2 1
99 7 989 59 3L2 1
99 8 1014 59 3L2 1
99 9 966 59 3L2 1
99 10 990 59 3L2 1
99 11 965 59 3L2 1
99 12 1013 59 3L2 1
99 13 918 59 3L2 1
99 14 988 59 3L2 1
99 15 941 59 3L2 1
